<svg width="14" height="8" viewBox="0 0 14 8" fill="none" xmlns="http://www.w3.org/2000/svg">
<path d="M10.3418 3.16699H0.333496V4.83366H10.3418V7.33366L13.6668 4.00033L10.3418 0.666992V3.16699Z" fill="#666666"/>
</svg>
