<svg width="14" height="14" viewBox="0 0 14 14" fill="none" xmlns="http://www.w3.org/2000/svg">
<path d="M14 1.41012L12.59 0.00012207L7 5.59012L1.41 0.00012207L0 1.41012L5.59 7.00012L0 12.5901L1.41 14.0001L7 8.41012L12.59 14.0001L14 12.5901L8.41 7.00012L14 1.41012Z" fill="#707070"/>
</svg>
