<svg width="17" height="16" viewBox="0 0 17 16" fill="none" xmlns="http://www.w3.org/2000/svg">
<path d="M0.422943 2C0.422943 0.895431 1.31837 0 2.42294 0H14.4229C15.5275 0 16.4229 0.895431 16.4229 2V14C16.4229 15.1046 15.5275 16 14.4229 16H2.42294C1.31837 16 0.422943 15.1046 0.422943 14V2Z" fill="#E4771D"/>
<path fill-rule="evenodd" clip-rule="evenodd" d="M11.3416 3.13598C11.3074 3.06922 11.245 3.02135 11.1717 3.00559C11.0984 2.98982 11.0218 3.00782 10.9632 3.05461C10.6608 3.29603 10.2423 3.48635 9.73231 3.66075C9.34438 3.79342 8.91974 3.91182 8.46936 4.0374L8.46935 4.03741L8.46929 4.03742C8.32776 4.07689 8.18369 4.11706 8.03742 4.1586C6.83048 4.50141 5.49609 4.93074 4.47108 5.80572C4.46687 5.80932 4.46278 5.81305 4.45881 5.81692C3.73005 6.52789 3.27138 7.71328 3.46898 8.90211C3.65576 10.0258 4.4213 11.1166 6.0136 11.8124C5.64313 12.1556 5.40586 12.3339 5.05006 12.4423C4.91798 12.4825 4.84351 12.6222 4.88373 12.7543C4.92395 12.8864 5.06363 12.9608 5.19571 12.9206C5.27046 12.8978 5.34127 12.8724 5.40909 12.8442C6.01279 12.5239 6.30258 12.2201 6.68472 11.8195C6.82848 11.6688 6.98531 11.5044 7.17684 11.3203C7.27096 11.1121 7.29943 10.8295 7.25672 10.4841C7.2116 10.1192 7.09045 9.71276 6.92099 9.30794C6.57878 8.49043 6.06602 7.7404 5.67989 7.40245C5.55521 7.29333 5.5426 7.1038 5.65172 6.97912C5.76084 6.85445 5.95038 6.84183 6.07505 6.95096C6.55282 7.36911 7.11087 8.20768 7.47446 9.07626C7.6579 9.5145 7.7984 9.97547 7.85218 10.4105C7.86113 10.4829 7.86778 10.5554 7.87176 10.6276C8.06221 10.4272 8.20757 10.2645 8.3187 10.1401C8.39606 10.0535 8.45684 9.98544 8.50469 9.93618C8.89687 9.46801 9.02347 9.18306 9.1838 8.8222L9.18381 8.82219C9.25412 8.66394 9.33091 8.49109 9.43944 8.28179C9.43927 8.28147 9.43926 8.28028 9.43924 8.27812C9.43914 8.26461 9.43874 8.2133 9.39784 8.10282C9.34663 7.96446 9.25425 7.79314 9.13352 7.60512C8.89347 7.23128 8.57141 6.83745 8.3469 6.58873C8.23589 6.46574 8.24559 6.27604 8.36858 6.16502C8.49157 6.054 8.68127 6.06371 8.79229 6.1867C9.03074 6.45086 9.37523 6.87108 9.6384 7.28093C9.69178 7.36407 9.74309 7.44873 9.79008 7.5332C10.239 6.45956 10.5048 5.2759 10.4723 4.00769C10.4681 3.84205 10.5989 3.70434 10.7646 3.7001C10.9302 3.69585 11.0679 3.82668 11.0721 3.99231C11.1153 5.67591 10.6689 7.21202 9.97874 8.54516L9.97339 8.55547C9.89022 8.71571 9.82337 8.86573 9.75701 9.01464L9.75701 9.01464C9.65645 9.2403 9.55704 9.46339 9.40372 9.71556C10.3309 9.70655 10.9631 10.2861 11.2433 10.608C11.3521 10.733 11.3389 10.9225 11.2139 11.0313C11.089 11.14 10.8995 11.1269 10.7907 11.0019C10.4973 10.6649 9.85254 10.1069 8.89333 10.3993C8.87079 10.4241 8.84305 10.4552 8.81021 10.4919L8.81021 10.4919C8.60497 10.7216 8.20104 11.1736 7.62976 11.7173C7.45788 11.8809 7.30778 12.0384 7.16239 12.1909L7.16238 12.1909C7.13006 12.2248 7.09798 12.2585 7.06594 12.2919C8.94367 13.126 10.3801 13.1707 11.4249 12.6983C12.6011 12.1663 13.1993 11.0165 13.3757 9.82159L13.3758 9.82159L13.3762 9.81791C13.5337 8.62934 13.2739 7.4517 12.855 6.33139C12.4953 5.36958 12.011 4.43244 11.5587 3.55725C11.4853 3.41514 11.4127 3.27466 11.3416 3.13598Z" fill="white"/>
</svg>
