<svg width="17" height="17" viewBox="0 0 17 17" fill="none" xmlns="http://www.w3.org/2000/svg">
<path d="M8.5 8.00293C10.71 8.00293 12.5 6.21293 12.5 4.00293C12.5 1.79293 10.71 0.00292969 8.5 0.00292969C6.29 0.00292969 4.5 1.79293 4.5 4.00293C4.5 6.21293 6.29 8.00293 8.5 8.00293ZM8.5 10.0029C5.83 10.0029 0.5 11.3429 0.5 14.0029V16.0029H16.5V14.0029C16.5 11.3429 11.17 10.0029 8.5 10.0029Z" fill="#1A1A1A"/>
</svg>
