<svg width="277" height="41" viewBox="0 0 277 41" fill="none" xmlns="http://www.w3.org/2000/svg">
<rect width="40" height="40" transform="translate(0 0.982422)" fill="#EEEEEE"/>
<g clip-path="url(#clip0_1615_71763)">
<path d="M24.4678 22.6699L25.001 19.2314H21.6669V17C21.6669 16.0593 22.1326 15.1423 23.6259 15.1423H25.1416V12.2147C25.1416 12.2147 23.7661 11.9824 22.451 11.9824C19.7053 11.9824 17.9105 13.6293 17.9105 16.6107V19.2314H14.8584V22.6699H17.9105V30.9824H21.6669V22.6699H24.4678Z" fill="#1A1A1A"/>
</g>
<rect width="40" height="40" transform="translate(59.25 0.982422)" fill="#EEEEEE"/>
<g clip-path="url(#clip1_1615_71763)">
<path d="M74.1841 28.4835H70.5403V16.7999H74.1841V28.4835ZM72.3603 15.2062C71.1951 15.2062 70.25 14.2452 70.25 13.0851C70.25 12.5278 70.4723 11.9934 70.8681 11.5993C71.2638 11.2053 71.8006 10.9839 72.3603 10.9839C72.9199 10.9839 73.4567 11.2053 73.8525 11.5993C74.2482 11.9934 74.4705 12.5278 74.4705 13.0851C74.4705 14.2452 73.5251 15.2062 72.3603 15.2062ZM87.8218 28.4835H84.1858V22.796C84.1858 21.4405 84.1584 19.7022 82.2914 19.7022C80.3969 19.7022 80.1065 21.1749 80.1065 22.6983V28.4835H76.4666V16.7999H79.9614V18.3937H80.0124C80.4989 17.4757 81.6872 16.5069 83.4601 16.5069C87.1478 16.5069 87.8258 18.9249 87.8258 22.0655V28.4835H87.8218Z" fill="#1A1A1A"/>
</g>
<rect width="40" height="40" transform="translate(118.5 0.982422)" fill="#EEEEEE"/>
<g clip-path="url(#clip2_1615_71763)">
<path d="M138.504 16.9393C136.232 16.9393 134.4 18.7428 134.4 20.9787C134.4 23.2146 136.232 25.0182 138.504 25.0182C140.775 25.0182 142.607 23.2146 142.607 20.9787C142.607 18.7428 140.775 16.9393 138.504 16.9393ZM138.504 23.6049C137.036 23.6049 135.836 22.4271 135.836 20.9787C135.836 19.5303 137.032 18.3525 138.504 18.3525C139.975 18.3525 141.171 19.5303 141.171 20.9787C141.171 22.4271 139.971 23.6049 138.504 23.6049ZM143.732 16.774C143.732 17.2979 143.304 17.7162 142.775 17.7162C142.243 17.7162 141.818 17.2943 141.818 16.774C141.818 16.2537 142.246 15.8318 142.775 15.8318C143.304 15.8318 143.732 16.2537 143.732 16.774ZM146.45 17.7303C146.389 16.4682 146.096 15.3502 145.157 14.4291C144.221 13.508 143.086 13.2197 141.804 13.1564C140.482 13.0826 136.521 13.0826 135.2 13.1564C133.921 13.2162 132.786 13.5045 131.846 14.4256C130.907 15.3467 130.618 16.4646 130.554 17.7268C130.479 19.0275 130.479 22.9264 130.554 24.2271C130.614 25.4893 130.907 26.6072 131.846 27.5283C132.786 28.4494 133.918 28.7377 135.2 28.801C136.521 28.8748 140.482 28.8748 141.804 28.801C143.086 28.7412 144.221 28.4529 145.157 27.5283C146.093 26.6072 146.386 25.4893 146.45 24.2271C146.525 22.9264 146.525 19.0311 146.45 17.7303ZM144.743 25.6228C144.464 26.3119 143.925 26.8428 143.221 27.1205C142.168 27.5318 139.668 27.4369 138.504 27.4369C137.339 27.4369 134.836 27.5283 133.786 27.1205C133.086 26.8463 132.546 26.3154 132.264 25.6228C131.846 24.5857 131.943 22.1248 131.943 20.9787C131.943 19.8326 131.85 17.3682 132.264 16.3346C132.543 15.6455 133.082 15.1146 133.786 14.8369C134.839 14.4256 137.339 14.5205 138.504 14.5205C139.668 14.5205 142.171 14.4291 143.221 14.8369C143.921 15.1111 144.461 15.642 144.743 16.3346C145.161 17.3717 145.064 19.8326 145.064 20.9787C145.064 22.1248 145.161 24.5893 144.743 25.6228Z" fill="#1A1A1A"/>
</g>
<rect width="40" height="40" transform="translate(177.75 0.982422)" fill="#EEEEEE"/>
<g clip-path="url(#clip3_1615_71763)">
<path d="M204.9 17.5008C204.911 17.6552 204.911 17.8096 204.911 17.964C204.911 22.6736 201.199 28.1001 194.415 28.1001C192.325 28.1001 190.383 27.5155 188.75 26.5008C189.047 26.5339 189.332 26.5449 189.641 26.5449C191.365 26.5449 192.953 25.9824 194.221 25.0229C192.599 24.9898 191.24 23.964 190.772 22.5523C191 22.5853 191.228 22.6074 191.468 22.6074C191.8 22.6074 192.131 22.5633 192.439 22.4861C190.749 22.1552 189.481 20.7214 189.481 18.9898V18.9457C189.972 19.2104 190.543 19.3758 191.148 19.3978C190.155 18.7581 189.504 17.6662 189.504 16.4309C189.504 15.7692 189.686 15.1626 190.006 14.6331C191.822 16.7949 194.552 18.2066 197.613 18.3611C197.556 18.0964 197.522 17.8207 197.522 17.5449C197.522 15.5817 199.166 13.9824 201.211 13.9824C202.273 13.9824 203.232 14.4126 203.906 15.1074C204.74 14.953 205.539 14.6552 206.247 14.2471C205.973 15.0744 205.391 15.7692 204.626 16.2104C205.368 16.1332 206.088 15.9346 206.75 15.6589C206.248 16.3648 205.619 16.9934 204.9 17.5008Z" fill="#1A1A1A"/>
</g>
<rect width="40" height="40" transform="translate(237 0.982422)" fill="#EEEEEE"/>
<rect x="237" y="0.982422" width="40" height="40" rx="20" fill="#EEEEEE"/>
<g clip-path="url(#clip4_1615_71763)">
<path d="M267.869 15.3996C267.613 14.4481 266.857 13.6988 265.898 13.4445C264.159 12.9824 257.187 12.9824 257.187 12.9824C257.187 12.9824 250.214 12.9824 248.475 13.4445C247.516 13.6988 246.76 14.4481 246.504 15.3996C246.038 17.1241 246.038 20.7222 246.038 20.7222C246.038 20.7222 246.038 24.3202 246.504 26.0448C246.76 26.9962 247.516 27.7143 248.475 27.9686C250.214 28.4307 257.187 28.4307 257.187 28.4307C257.187 28.4307 264.159 28.4307 265.898 27.9686C266.857 27.7143 267.613 26.9962 267.869 26.0448C268.335 24.3202 268.335 20.7222 268.335 20.7222C268.335 20.7222 268.335 17.1241 267.869 15.3996ZM254.906 23.989V17.4554L260.734 20.7222L254.906 23.989Z" fill="#1A1A1A"/>
</g>
<defs>
<clipPath id="clip0_1615_71763">
<rect width="12" height="19" fill="white" transform="translate(14 11.9824)"/>
</clipPath>
<clipPath id="clip1_1615_71763">
<rect width="17.5758" height="20" fill="white" transform="translate(70.25 10.9824)"/>
</clipPath>
<clipPath id="clip2_1615_71763">
<rect width="16" height="18" fill="white" transform="translate(130.5 11.9824)"/>
</clipPath>
<clipPath id="clip3_1615_71763">
<rect width="18" height="15" fill="white" transform="translate(188.75 13.9824)"/>
</clipPath>
<clipPath id="clip4_1615_71763">
<rect width="22.3734" height="15.4483" fill="white" transform="translate(246 12.9824)"/>
</clipPath>
</defs>
</svg>
