<svg width="34" height="34" viewBox="0 0 34 34" fill="none" xmlns="http://www.w3.org/2000/svg">
<path d="M17.0002 0.333252C7.80016 0.333252 0.333496 7.79992 0.333496 16.9999C0.333496 26.1999 7.80016 33.6666 17.0002 33.6666C26.2002 33.6666 33.6668 26.1999 33.6668 16.9999C33.6668 7.79992 26.2002 0.333252 17.0002 0.333252ZM3.66683 16.9999C3.66683 9.63325 9.6335 3.66659 17.0002 3.66659C20.0835 3.66659 22.9168 4.71659 25.1668 6.48325L6.4835 25.1666C4.71683 22.9166 3.66683 20.0833 3.66683 16.9999ZM17.0002 30.3333C13.9168 30.3333 11.0835 29.2833 8.8335 27.5166L27.5168 8.83325C29.2835 11.0833 30.3335 13.9166 30.3335 16.9999C30.3335 24.3666 24.3668 30.3333 17.0002 30.3333Z" fill="#DC1C1C"/>
</svg>
