<svg width="12" height="16" viewBox="0 0 12 16" fill="none" xmlns="http://www.w3.org/2000/svg">
<path d="M9.33366 5.5V13.8333H2.66699V5.5H9.33366ZM8.08366 0.5H3.91699L3.08366 1.33333H0.166992V3H11.8337V1.33333H8.91699L8.08366 0.5ZM11.0003 3.83333H1.00033V13.8333C1.00033 14.75 1.75033 15.5 2.66699 15.5H9.33366C10.2503 15.5 11.0003 14.75 11.0003 13.8333V3.83333Z" fill="#DC1C1C"/>
</svg>
