<svg width="138" height="35" viewBox="0 0 138 35" fill="none" xmlns="http://www.w3.org/2000/svg">
<path fill-rule="evenodd" clip-rule="evenodd" d="M23.0081 3.35516C22.911 3.1657 22.734 3.02984 22.5258 2.98509C22.3177 2.94035 22.1004 2.99143 21.9341 3.12424C21.0516 3.82866 19.8314 4.38327 18.347 4.89094C17.2177 5.27717 15.9813 5.6219 14.6707 5.98735C14.2589 6.10217 13.8397 6.21904 13.4143 6.33988C9.9022 7.33742 6.02291 8.58586 3.04361 11.1291C3.03165 11.1393 3.02004 11.1499 3.00879 11.1609C0.892218 13.2258 -0.440273 16.6693 0.133719 20.1225C0.677034 23.3911 2.90704 26.5662 7.5527 28.5885C6.46271 29.5997 5.76747 30.1254 4.72192 30.4438C4.34705 30.558 4.13569 30.9544 4.24984 31.3293C4.36399 31.7042 4.76043 31.9155 5.1353 31.8014C6.3501 31.4314 7.20683 30.8162 8.19002 29.9306C8.28021 29.82 8.373 29.7033 8.47036 29.581C8.88275 29.0625 9.377 28.4411 10.1017 27.7396C10.4193 27.0688 10.5531 26.1517 10.5026 25.0605C10.4502 23.9253 10.2012 22.6634 9.81807 21.4186C9.04112 18.8944 7.76786 16.6111 6.65674 15.6386C6.36186 15.3805 6.33203 14.9323 6.59012 14.6374C6.8482 14.3425 7.29647 14.3127 7.59134 14.5708C8.99402 15.7984 10.3671 18.3784 11.1744 21.0011C11.5833 22.3298 11.8609 23.7122 11.9202 24.995C11.9363 25.3424 11.9365 25.6872 11.9179 26.0252C12.4764 25.5025 12.9946 25.0205 13.44 24.6063C14.1598 23.9368 14.6896 23.4442 14.8917 23.2421C16.0499 21.8599 16.4298 21.0052 16.9009 19.9453L16.901 19.9452C17.1056 19.4848 17.3275 18.9856 17.6379 18.3876L17.644 18.3758C17.6464 18.3673 17.6565 18.3261 17.6478 18.2334C17.6366 18.1145 17.5982 17.9516 17.5209 17.7428C17.366 17.3243 17.0901 16.8144 16.7361 16.263C16.0313 15.1654 15.088 14.0123 14.4309 13.2843C14.1684 12.9934 14.1913 12.5448 14.4822 12.2822C14.7731 12.0196 15.2218 12.0426 15.4843 12.3335C16.1744 13.0979 17.1707 14.3135 17.9302 15.4963C18.148 15.8356 18.3524 16.1813 18.5259 16.52C19.9206 13.2948 20.7561 9.72021 20.6576 5.87925C20.6476 5.48751 20.957 5.16181 21.3488 5.15177C21.7405 5.14173 22.0662 5.45116 22.0763 5.8429C22.201 10.7096 20.9108 15.1523 18.9129 19.0115L18.8974 19.0414C18.6487 19.5205 18.4513 19.9637 18.2567 20.4003L18.2567 20.4004C17.9322 21.1287 17.6158 21.8388 17.0837 22.6664C19.8788 22.5056 21.7802 24.2382 22.6143 25.1965C22.8716 25.4921 22.8405 25.9403 22.5449 26.1975C22.2493 26.4548 21.8012 26.4237 21.5439 26.1282C20.6707 25.1249 18.7115 23.4237 15.7954 24.3431C15.5294 24.6003 15.0147 25.0793 14.3581 25.6902C13.4676 26.5189 12.3163 27.5902 11.1712 28.6801C10.7441 29.0865 10.4224 29.4403 10.144 29.7709C15.8244 32.3905 20.1433 32.564 23.2588 31.1552C26.6742 29.6107 28.4124 26.2717 28.9252 22.7983L28.9253 22.7983L28.9266 22.7879C29.3844 19.3334 28.6293 15.9099 27.4108 12.6513C26.3646 9.85379 24.956 7.12798 23.6401 4.58133L23.64 4.58129L23.64 4.58124L23.64 4.58118C23.4263 4.16763 23.215 3.7588 23.0081 3.35516Z" fill="#E4771D"/>
<path d="M40.066 16V5.81818H41.9105V10.1286H46.6285V5.81818H48.4779V16H46.6285V11.6747H41.9105V16H40.066ZM50.484 16V5.81818H57.1061V7.36435H52.3284V10.1286H56.7631V11.6747H52.3284V14.4538H57.1459V16H50.484ZM60.2954 16H58.3267L61.9112 5.81818H64.1882L67.7776 16H65.8089L63.0894 7.90625H63.0099L60.2954 16ZM60.36 12.0078H65.7294V13.4893H60.36V12.0078ZM69.1187 16V5.81818H70.9632V14.4538H75.4476V16H69.1187ZM75.3021 7.36435V5.81818H83.4257V7.36435H80.2787V16H78.4492V7.36435H75.3021ZM84.9918 16V5.81818H86.8362V10.1286H91.5543V5.81818H93.4037V16H91.5543V11.6747H86.8362V16H84.9918ZM94.7137 5.81818H96.7968L99.2876 10.3224H99.387L101.878 5.81818H103.961L100.257 12.2017V16H98.4176V12.2017L94.7137 5.81818ZM45.5994 22.6172C45.553 22.183 45.3574 21.8449 45.0127 21.603C44.6713 21.361 44.2272 21.2401 43.6803 21.2401C43.2959 21.2401 42.9661 21.2981 42.691 21.4141C42.4159 21.5301 42.2054 21.6875 42.0596 21.8864C41.9138 22.0852 41.8392 22.3123 41.8359 22.5675C41.8359 22.7796 41.8839 22.9635 41.9801 23.1193C42.0795 23.2751 42.2137 23.4077 42.3828 23.517C42.5518 23.6231 42.7391 23.7126 42.9445 23.7855C43.15 23.8584 43.3572 23.9197 43.566 23.9695L44.5205 24.2081C44.905 24.2976 45.2746 24.4186 45.6292 24.571C45.9872 24.7235 46.307 24.9157 46.5887 25.1477C46.8738 25.3797 47.0991 25.6598 47.2649 25.9879C47.4306 26.3161 47.5134 26.7005 47.5134 27.1413C47.5134 27.7379 47.361 28.2633 47.0561 28.7173C46.7511 29.1681 46.3103 29.5211 45.7336 29.7763C45.1602 30.0282 44.4659 30.1541 43.6505 30.1541C42.8584 30.1541 42.1706 30.0315 41.5873 29.7862C41.0073 29.541 40.5532 29.183 40.2251 28.7124C39.9003 28.2417 39.7246 27.6683 39.6981 26.9922H41.5127C41.5392 27.3468 41.6486 27.6418 41.8409 27.8771C42.0331 28.1125 42.2833 28.2881 42.5916 28.4041C42.9031 28.5201 43.2511 28.5781 43.6356 28.5781C44.0366 28.5781 44.388 28.5185 44.6896 28.3991C44.9945 28.2765 45.2331 28.1075 45.4055 27.892C45.5778 27.6733 45.6657 27.4181 45.669 27.1264C45.6657 26.8613 45.5878 26.6425 45.4353 26.4702C45.2829 26.2945 45.0691 26.1487 44.794 26.0327C44.5222 25.9134 44.204 25.8073 43.8394 25.7145L42.6811 25.4162C41.8425 25.2008 41.1796 24.8743 40.6924 24.4368C40.2085 23.996 39.9666 23.411 39.9666 22.6818C39.9666 22.0819 40.129 21.5566 40.4538 21.1058C40.7819 20.6551 41.2277 20.3054 41.7911 20.0568C42.3546 19.8049 42.9926 19.679 43.7052 19.679C44.4277 19.679 45.0608 19.8049 45.6044 20.0568C46.1512 20.3054 46.5804 20.6518 46.892 21.0959C47.2035 21.5367 47.3643 22.0438 47.3742 22.6172H45.5994ZM48.7104 21.3643V19.8182H56.8339V21.3643H53.6869V30H51.8574V21.3643H48.7104ZM58.4 30V19.8182H62.2182C63.0004 19.8182 63.6566 19.9541 64.1869 20.2259C64.7205 20.4976 65.1232 20.8788 65.395 21.3693C65.6701 21.8565 65.8077 22.425 65.8077 23.0746C65.8077 23.7275 65.6684 24.2943 65.39 24.7749C65.1149 25.2521 64.7089 25.6217 64.172 25.8835C63.6351 26.142 62.9755 26.2713 62.1933 26.2713H59.4738V24.7401H61.9447C62.4021 24.7401 62.7766 24.6771 63.0683 24.5511C63.36 24.4219 63.5754 24.2346 63.7146 23.9893C63.8571 23.7408 63.9284 23.4358 63.9284 23.0746C63.9284 22.7133 63.8571 22.4051 63.7146 22.1499C63.5721 21.8913 63.355 21.6958 63.0633 21.5632C62.7717 21.4273 62.3955 21.3594 61.9348 21.3594H60.2444V30H58.4ZM63.6599 25.3864L66.1805 30H64.1223L61.6464 25.3864H63.6599ZM67.5055 30V19.8182H74.1276V21.3643H69.3499V24.1286H73.7846V25.6747H69.3499V28.4538H74.1674V30H67.5055ZM76.0094 30V19.8182H82.6315V21.3643H77.8538V24.1286H82.2885V25.6747H77.8538V28.4538H82.6713V30H76.0094ZM84.0658 21.3643V19.8182H92.1894V21.3643H89.0424V30H87.2128V21.3643H84.0658ZM97.2281 30V19.8182H103.751V21.3643H99.0726V24.1286H103.303V25.6747H99.0726V30H97.2281ZM114.529 24.9091C114.529 26.0062 114.324 26.9458 113.913 27.728C113.505 28.5069 112.948 29.1035 112.242 29.5178C111.54 29.9321 110.743 30.1392 109.851 30.1392C108.959 30.1392 108.161 29.9321 107.455 29.5178C106.752 29.1001 106.195 28.5019 105.784 27.723C105.377 26.9408 105.173 26.0028 105.173 24.9091C105.173 23.812 105.377 22.8741 105.784 22.0952C106.195 21.313 106.752 20.7147 107.455 20.3004C108.161 19.8861 108.959 19.679 109.851 19.679C110.743 19.679 111.54 19.8861 112.242 20.3004C112.948 20.7147 113.505 21.313 113.913 22.0952C114.324 22.8741 114.529 23.812 114.529 24.9091ZM112.675 24.9091C112.675 24.1368 112.554 23.4856 112.312 22.9553C112.073 22.4216 111.742 22.0189 111.318 21.7472C110.893 21.4721 110.404 21.3345 109.851 21.3345C109.297 21.3345 108.809 21.4721 108.384 21.7472C107.96 22.0189 107.627 22.4216 107.385 22.9553C107.146 23.4856 107.027 24.1368 107.027 24.9091C107.027 25.6813 107.146 26.3343 107.385 26.8679C107.627 27.3982 107.96 27.8009 108.384 28.076C108.809 28.3478 109.297 28.4837 109.851 28.4837C110.404 28.4837 110.893 28.3478 111.318 28.076C111.742 27.8009 112.073 27.3982 112.312 26.8679C112.554 26.3343 112.675 25.6813 112.675 24.9091ZM125.371 24.9091C125.371 26.0062 125.166 26.9458 124.755 27.728C124.347 28.5069 123.79 29.1035 123.084 29.5178C122.381 29.9321 121.584 30.1392 120.693 30.1392C119.801 30.1392 119.002 29.9321 118.296 29.5178C117.594 29.1001 117.037 28.5019 116.626 27.723C116.218 26.9408 116.015 26.0028 116.015 24.9091C116.015 23.812 116.218 22.8741 116.626 22.0952C117.037 21.313 117.594 20.7147 118.296 20.3004C119.002 19.8861 119.801 19.679 120.693 19.679C121.584 19.679 122.381 19.8861 123.084 20.3004C123.79 20.7147 124.347 21.313 124.755 22.0952C125.166 22.8741 125.371 23.812 125.371 24.9091ZM123.517 24.9091C123.517 24.1368 123.396 23.4856 123.154 22.9553C122.915 22.4216 122.584 22.0189 122.159 21.7472C121.735 21.4721 121.246 21.3345 120.693 21.3345C120.139 21.3345 119.65 21.4721 119.226 21.7472C118.802 22.0189 118.469 22.4216 118.227 22.9553C117.988 23.4856 117.869 24.1368 117.869 24.9091C117.869 25.6813 117.988 26.3343 118.227 26.8679C118.469 27.3982 118.802 27.8009 119.226 28.076C119.65 28.3478 120.139 28.4837 120.693 28.4837C121.246 28.4837 121.735 28.3478 122.159 28.076C122.584 27.8009 122.915 27.3982 123.154 26.8679C123.396 26.3343 123.517 25.6813 123.517 24.9091ZM130.565 30H127.115V19.8182H130.635C131.646 19.8182 132.514 20.022 133.24 20.4297C133.969 20.834 134.529 21.4157 134.92 22.1747C135.311 22.9337 135.507 23.8419 135.507 24.8991C135.507 25.9598 135.31 26.8712 134.915 27.6335C134.524 28.3958 133.959 28.9808 133.22 29.3885C132.484 29.7962 131.599 30 130.565 30ZM128.959 28.4041H130.476C131.185 28.4041 131.777 28.2749 132.25 28.0163C132.724 27.7545 133.081 27.3651 133.319 26.848C133.558 26.3277 133.677 25.678 133.677 24.8991C133.677 24.1203 133.558 23.474 133.319 22.9602C133.081 22.4432 132.728 22.0571 132.26 21.8018C131.796 21.5433 131.22 21.4141 130.53 21.4141H128.959V28.4041Z" fill="#1A1A1A"/>
</svg>
