<svg width="20" height="21" viewBox="0 0 20 21" fill="none" xmlns="http://www.w3.org/2000/svg">
<path d="M3.85 15.6942C4.7 15.0442 5.65 14.5316 6.7 14.1562C7.75 13.7816 8.85 13.5942 10 13.5942C11.15 13.5942 12.25 13.7816 13.3 14.1562C14.35 14.5316 15.3 15.0442 16.15 15.6942C16.7333 15.0109 17.1877 14.2359 17.513 13.3692C17.8377 12.5026 18 11.5776 18 10.5942C18 8.37757 17.221 6.4899 15.663 4.93124C14.1043 3.37324 12.2167 2.59424 10 2.59424C7.78333 2.59424 5.896 3.37324 4.338 4.93124C2.77933 6.4899 2 8.37757 2 10.5942C2 11.5776 2.16267 12.5026 2.488 13.3692C2.81267 14.2359 3.26667 15.0109 3.85 15.6942ZM10 11.5942C9.01667 11.5942 8.18733 11.2569 7.512 10.5822C6.83733 9.90691 6.5 9.07757 6.5 8.09424C6.5 7.1109 6.83733 6.28157 7.512 5.60624C8.18733 4.93157 9.01667 4.59424 10 4.59424C10.9833 4.59424 11.8127 4.93157 12.488 5.60624C13.1627 6.28157 13.5 7.1109 13.5 8.09424C13.5 9.07757 13.1627 9.90691 12.488 10.5822C11.8127 11.2569 10.9833 11.5942 10 11.5942ZM10 20.5942C8.61667 20.5942 7.31667 20.3316 6.1 19.8062C4.88333 19.2816 3.825 18.5692 2.925 17.6692C2.025 16.7692 1.31267 15.7109 0.788 14.4942C0.262667 13.2776 0 11.9776 0 10.5942C0 9.21091 0.262667 7.91091 0.788 6.69424C1.31267 5.47757 2.025 4.41924 2.925 3.51924C3.825 2.61924 4.88333 1.90657 6.1 1.38124C7.31667 0.856572 8.61667 0.594238 10 0.594238C11.3833 0.594238 12.6833 0.856572 13.9 1.38124C15.1167 1.90657 16.175 2.61924 17.075 3.51924C17.975 4.41924 18.6873 5.47757 19.212 6.69424C19.7373 7.91091 20 9.21091 20 10.5942C20 11.9776 19.7373 13.2776 19.212 14.4942C18.6873 15.7109 17.975 16.7692 17.075 17.6692C16.175 18.5692 15.1167 19.2816 13.9 19.8062C12.6833 20.3316 11.3833 20.5942 10 20.5942ZM10 18.5942C10.8833 18.5942 11.7167 18.4652 12.5 18.2072C13.2833 17.9486 14 17.5776 14.65 17.0942C14 16.6109 13.2833 16.2399 12.5 15.9812C11.7167 15.7232 10.8833 15.5942 10 15.5942C9.11667 15.5942 8.28333 15.7232 7.5 15.9812C6.71667 16.2399 6 16.6109 5.35 17.0942C6 17.5776 6.71667 17.9486 7.5 18.2072C8.28333 18.4652 9.11667 18.5942 10 18.5942ZM10 9.59424C10.4333 9.59424 10.7917 9.45257 11.075 9.16924C11.3583 8.8859 11.5 8.52757 11.5 8.09424C11.5 7.6609 11.3583 7.30257 11.075 7.01924C10.7917 6.73591 10.4333 6.59424 10 6.59424C9.56667 6.59424 9.20833 6.73591 8.925 7.01924C8.64167 7.30257 8.5 7.6609 8.5 8.09424C8.5 8.52757 8.64167 8.8859 8.925 9.16924C9.20833 9.45257 9.56667 9.59424 10 9.59424Z" fill="#666666"/>
</svg>
