<svg width="20" height="21" viewBox="0 0 20 21" fill="none" xmlns="http://www.w3.org/2000/svg">
<path d="M18 0.594284H2C0.9 0.594284 0.00999999 1.49428 0.00999999 2.59428L0 20.5943L4 16.5943H18C19.1 16.5943 20 15.6943 20 14.5943V2.59428C20 1.49428 19.1 0.594284 18 0.594284ZM18 14.5943H3.17L2.58 15.1843L2 15.7643V2.59428H18V14.5943ZM9 10.5943H11V12.5943H9V10.5943ZM9 4.59428H11V8.59428H9V4.59428Z" fill="#666666"/>
</svg>
