<svg width="20" height="12" viewBox="0 0 20 12" fill="none" xmlns="http://www.w3.org/2000/svg">
<path fill-rule="evenodd" clip-rule="evenodd" d="M15.9091 3.59129H17.9545L20 6.31856V9.72765H18.6364C18.6364 10.8595 17.7227 11.7731 16.5909 11.7731C15.4591 11.7731 14.5455 10.8595 14.5455 9.72765H10.4545C10.4545 10.8595 9.54091 11.7731 8.40909 11.7731C7.27727 11.7731 6.36364 10.8595 6.36364 9.72765H5V2.22765C5 1.47765 5.61364 0.864017 6.36364 0.864017H15.9091V3.59129ZM18.95 6.31856L17.6136 4.61402H15.9091V6.31856H18.95ZM7.72727 9.72765C7.72727 10.1027 8.03409 10.4095 8.40909 10.4095C8.78409 10.4095 9.09091 10.1027 9.09091 9.72765C9.09091 9.35265 8.78409 9.04584 8.40909 9.04584C8.03409 9.04584 7.72727 9.35265 7.72727 9.72765ZM8.40909 7.6822C9.01591 7.6822 9.54773 7.94811 9.92273 8.36402H14.5455V2.22765H6.36364V8.36402H6.89545C7.27045 7.94811 7.80227 7.6822 8.40909 7.6822ZM15.9091 9.72765C15.9091 10.1027 16.2159 10.4095 16.5909 10.4095C16.9659 10.4095 17.2727 10.1027 17.2727 9.72765C17.2727 9.35265 16.9659 9.04584 16.5909 9.04584C16.2159 9.04584 15.9091 9.35265 15.9091 9.72765ZM4.16667 3.66675H2.60417V5.01291H4.16667V3.66675ZM4.16667 5.91034H1.5625V7.2565H4.16667V5.91034ZM4.16667 8.15393H0V9.50009H4.16667V8.15393Z" fill="#BFBFBF"/>
</svg>
