<svg width="18" height="21" viewBox="0 0 18 21" fill="none" xmlns="http://www.w3.org/2000/svg">
<path fill-rule="evenodd" clip-rule="evenodd" d="M16.5 2.09424L15 0.594238L13.5 2.09424L12 0.594238L10.5 2.09424L9 0.594238L7.5 2.09424L6 0.594238L4.5 2.09424L3 0.594238V14.5942H0V17.5942C0 19.2542 1.34 20.5942 3 20.5942H15C16.66 20.5942 18 19.2542 18 17.5942V0.594238L16.5 2.09424ZM3 18.5942C2.45 18.5942 2 18.1442 2 17.5942V16.5942H12V18.5942H3ZM16 17.5942C16 18.1442 15.55 18.5942 15 18.5942C14.45 18.5942 14 18.1442 14 17.5942V14.5942H5V3.59424H16V17.5942ZM6 5.59424V7.59424H12V5.59424H6ZM13 5.59424H15V7.59424H13V5.59424ZM6 8.59424V10.5942H12V8.59424H6ZM13 8.59424H15V10.5942H13V8.59424Z" fill="#666666"/>
</svg>
