<svg width="41" height="41" fill="none" xmlns="http://www.w3.org/2000/svg">
<symbol id="instagram" viewBox="0 0 40 41">
<g clip-path="url(#clip0_2214_9633)">
<path d="M20.5038 16.9393C18.2324 16.9393 16.4002 18.7428 16.4002 20.9787C16.4002 23.2146 18.2324 25.0182 20.5038 25.0182C22.7752 25.0182 24.6074 23.2146 24.6074 20.9787C24.6074 18.7428 22.7752 16.9393 20.5038 16.9393ZM20.5038 23.6049C19.036 23.6049 17.836 22.4271 17.836 20.9787C17.836 19.5303 19.0324 18.3525 20.5038 18.3525C21.9752 18.3525 23.1717 19.5303 23.1717 20.9787C23.1717 22.4271 21.9717 23.6049 20.5038 23.6049ZM25.7324 16.774C25.7324 17.2979 25.3038 17.7162 24.7752 17.7162C24.2431 17.7162 23.8181 17.2943 23.8181 16.774C23.8181 16.2537 24.2467 15.8318 24.7752 15.8318C25.3038 15.8318 25.7324 16.2537 25.7324 16.774ZM28.4502 17.7303C28.3895 16.4682 28.0967 15.3502 27.1574 14.4291C26.2217 13.508 25.086 13.2197 23.8038 13.1564C22.4824 13.0826 18.5217 13.0826 17.2002 13.1564C15.9217 13.2162 14.786 13.5045 13.8467 14.4256C12.9074 15.3467 12.6181 16.4646 12.5538 17.7268C12.4788 19.0275 12.4788 22.9264 12.5538 24.2271C12.6145 25.4893 12.9074 26.6072 13.8467 27.5283C14.786 28.4494 15.9181 28.7377 17.2002 28.801C18.5217 28.8748 22.4824 28.8748 23.8038 28.801C25.086 28.7412 26.2217 28.4529 27.1574 27.5283C28.0931 26.6072 28.386 25.4893 28.4502 24.2271C28.5252 22.9264 28.5252 19.0311 28.4502 17.7303ZM26.7431 25.6228C26.4645 26.3119 25.9252 26.8428 25.2217 27.1205C24.1681 27.5318 21.6681 27.4369 20.5038 27.4369C19.3395 27.4369 16.836 27.5283 15.786 27.1205C15.086 26.8463 14.5467 26.3154 14.2645 25.6228C13.8467 24.5857 13.9431 22.1248 13.9431 20.9787C13.9431 19.8326 13.8502 17.3682 14.2645 16.3346C14.5431 15.6455 15.0824 15.1146 15.786 14.8369C16.8395 14.4256 19.3395 14.5205 20.5038 14.5205C21.6681 14.5205 24.1717 14.4291 25.2217 14.8369C25.9217 15.1111 26.461 15.642 26.7431 16.3346C27.161 17.3717 27.0645 19.8326 27.0645 20.9787C27.0645 22.1248 27.161 24.5893 26.7431 25.6228Z" fill="currentColor"/>
</g>
<defs>
<clipPath id="clip0_2214_9633">
<rect width="16" height="18" fill="white" transform="translate(12.5 11.9824)"/>
</clipPath>
</defs>
</symbol>
</svg>
